{
	"additionalNodes": [],
	"additionalParameters": {
		"root": {
			"height": 88,
			"width": 180
		}
	},
	"inputs": [],
	"outputs": [],
	"properties": {
		"0T5qEL1dVPAR8gzzqV4rUsvVAvM4EZSb": {
			"height": 92,
			"title": "store",
			"width": 140,
			"x": 1314,
			"y": 19
		},
		"6ztfBjWhGdJgY1szbzXTYUiVgbaKTY1V": {
			"height": 92,
			"title": "store",
			"width": 131,
			"x": 676,
			"y": -43
		},
		"8SHhpWsh7eVnVseFIdotX3qXO8eTgg45": {
			"height": 60,
			"title": "WindMath",
			"width": 145,
			"x": 927,
			"y": 19
		},
		"IsJM55lwfj6cCdekx079GFa0O16CBiWl": {
			"height": 90,
			"title": "Common.relativeMove",
			"width": 775,
			"x": 1545,
			"y": 242
		},
		"PsbGTBC2jsLa7VALPShlnUGTwSmXqlJo": {
			"height": 90,
			"title": "Common.relativeMove",
			"width": 775,
			"x": 1548,
			"y": 107
		},
		"S7J1JlvRZrSIxk2RDsjiEgk9LDpTPdZK": {
			"height": 90,
			"title": "luaCondition",
			"width": 194,
			"x": 1219,
			"y": 192
		},
		"SYc0AT2mOnStU4dep8EP3PwI7aRQEK7B": {
			"height": 60,
			"title": "sequence",
			"width": 143,
			"x": 267,
			"y": 139
		},
		"hD0awupVItTTAzpPsuBcp0bXrZIHMlfA": {
			"height": 94,
			"title": "store",
			"width": 204,
			"x": 1309,
			"y": -95
		},
		"pOvXMPKtkKMPCukHJh2PUaW8Cv3QklpC": {
			"height": 60,
			"title": "repeat",
			"width": 131,
			"x": 465,
			"y": 185
		},
		"vFNzcEdB5wSm6kkwvh34FpnUBgOHpHFt": {
			"height": 83,
			"title": "parallel",
			"width": 266,
			"x": 622,
			"y": 83
		},
		"xoEZdM8TN5S78FAYQoZzPa2Lfcw7P8Dv": {
			"height": 60,
			"title": "sequence",
			"width": 143,
			"x": 1111,
			"y": -15
		}
	},
	"roles": [ {
		"categories": [ "nota_napr_sandsail.commander" ],
		"name": "Role Commander"
	} ],
	"root": {
		"children": [ {
			"children": [],
			"id": "6ztfBjWhGdJgY1szbzXTYUiVgbaKTY1V",
			"nodeType": "luaCommand",
			"parameters": [ {
				"name": "var",
				"value": "multiplier"
			}, {
				"name": "value",
				"value": "5"
			}, {
				"name": "scriptName",
				"value": "store"
			} ],
			"scriptName": "store"
		}, {
			"children": [ {
				"children": [ {
					"children": [ {
						"children": [ {
							"children": [],
							"id": "hD0awupVItTTAzpPsuBcp0bXrZIHMlfA",
							"nodeType": "luaCommand",
							"parameters": [ {
								"name": "var",
								"value": "w"
							}, {
								"name": "value",
								"value": "{Spring.GetWind()}"
							}, {
								"name": "scriptName",
								"value": "store"
							} ],
							"scriptName": "store"
						}, {
							"children": [],
							"id": "0T5qEL1dVPAR8gzzqV4rUsvVAvM4EZSb",
							"nodeType": "luaCommand",
							"parameters": [ {
								"name": "var",
								"value": "reset"
							}, {
								"name": "value",
								"value": "not reset"
							}, {
								"name": "scriptName",
								"value": "store"
							} ],
							"scriptName": "store"
						} ],
						"id": "xoEZdM8TN5S78FAYQoZzPa2Lfcw7P8Dv",
						"nodeType": "sequence",
						"parameters": []
					} ],
					"id": "8SHhpWsh7eVnVseFIdotX3qXO8eTgg45",
					"nodeType": "repeat",
					"parameters": []
				}, {
					"children": [ {
						"children": [],
						"id": "PsbGTBC2jsLa7VALPShlnUGTwSmXqlJo",
						"nodeType": "luaCommand",
						"parameters": [ {
							"name": "dist",
							"value": "{x = w[1]*w[4] *multiplier, z = w[3]*w[4] *multiplier}"
						}, {
							"name": "fight",
							"value": "false"
						}, {
							"name": "scriptName",
							"value": "Common.relativeMove"
						} ],
						"scriptName": "Common.relativeMove"
					}, {
						"children": [],
						"id": "IsJM55lwfj6cCdekx079GFa0O16CBiWl",
						"nodeType": "luaCommand",
						"parameters": [ {
							"name": "dist",
							"value": "{x = w[1]*w[4] *multiplier, z = w[3]*w[4] *multiplier}"
						}, {
							"name": "fight",
							"value": "false"
						}, {
							"name": "scriptName",
							"value": "Common.relativeMove"
						} ],
						"scriptName": "Common.relativeMove"
					} ],
					"id": "S7J1JlvRZrSIxk2RDsjiEgk9LDpTPdZK",
					"nodeType": "luaCondition",
					"parameters": [ {
						"name": "expression",
						"value": "reset"
					}, {
						"name": "repeat",
						"value": "true"
					} ]
				} ],
				"id": "vFNzcEdB5wSm6kkwvh34FpnUBgOHpHFt",
				"nodeType": "parallel",
				"parameters": [ {
					"name": "mode",
					"value": "all-success"
				} ]
			} ],
			"id": "pOvXMPKtkKMPCukHJh2PUaW8Cv3QklpC",
			"nodeType": "repeat",
			"parameters": []
		} ],
		"id": "SYc0AT2mOnStU4dep8EP3PwI7aRQEK7B",
		"nodeType": "sequence",
		"parameters": []
	}
}